{

  "panelOneTextOne": "Solving problems manually?",
  "panelOneTextTwo": "Grinding out time-consuming individual solutions?",
  "panelOneTextThree": "Design a system to solve them for you!",

  "panelTwoTextOne": "Trying to handle too many requests at once?",
  "panelTwoTextTwo": "Testing a complicated platform?",
  "panelTwoTextThree": "Build a system to handle every operation concurrently!",
  
  "panelThreeTextOne": "From a button press...",
  "panelThreeTextTwo": "...Test and execute all your commands...",
  "panelThreeTextThree": "...While you take it easy!"
  
}
